Analysis
…
Analysis

Read data

Check number of rows and columns

[1] 1227   15

Glimpse of the data

# A tibble: 1,227 × 15
   text        file  paral…¹ paral…² dem   secon…³ include early_v corre…⁴ the  
   <chr>       <chr> <chr>   <chr>   <fct> <fct>   <chr>   <fct>   <chr>   <chr>
 1 /~*Sum +a+… coae… n       100AN   SE    second… y       early_v n       n    
 2 /~*Sum +a+… /~*c… n       100BN   no    other_m y       other_v n       y    
 3 /~*Sum +a+… /~*c… n       100CN   no    second… y       early_v n       y    
 4 /~*Sum wer… coae… n       101AN   SE    second… y       early_v n       n    
 5 /~*Sum wer… /~*c… n       101BN   no    other_m y       other_v n       y    
 6 /~*Sum wif… coae… n       102AN   SE    second… y       early_v n       n    
 7 /~*Sum wif… /~*c… n       102BN   no    other_m y       other_v n       y    
 8 /~*Sume me… /~*c… n       103AN   no    other_m y       early_v n       y    
 9 /~*Sume me… /~*c… n       103BN   no    other_m y       other_v n       y    
10 /~*Sume mu… /~*c… n       104AN   no    other_m y       other_v n       y    
# … with 1,217 more rows, 5 more variables: divinity <fct>, generic <chr>,
#   be <chr>, grand_tot <int>, second_early <fct>, and abbreviated variable
#   names ¹​parallel_set, ²​parallel_set_id, ³​second_m, ⁴​correlative
…
